first_name,last_name,email,department,password,password_confirmation
"Абдурахман","Кимбатбеков","abdurakhman.k@evrika.com","1С администрирование","0000","0000"
"Адильбек","Оралбек","adilbek.o@evrika.com","Категория TV","0000","0000"
"Аида","Акимбаева","aida.a@evrika.com","Call-центр","0000","0000"
"Аида","Нұралы","aida.n@evrika.com","Отдел управления сайтом","0000","0000"
"Айдос","Кыдыр","aidos.k@evrika.com","1С администрирование","0000","0000"
"Айгерим","Ирсимбетова","aigerim.i@evrika.com","Отдел управления сайтом","0000","0000"
"Айгерим","Курманова","aigerim.k@evrika.com","Отдел доставки","0000","0000"
"Айгерим","Момбекова","aigerim.m@evrika.com","Отдел управления сайтом","0000","0000"
"Айгуль","Кенжебай","aigul.k@evrika.com","Отдел управления сайтом","0000","0000"
"Айгуль","Омиргалиева","aigul.o@evrika.com","Бухгалтерия","0000","0000"
"Айгуль","Ташбенбетова","aigul.ta@evrika.com","","0000","0000"
"Айлянур","Абдуллаева","Ailyanur.a@evrika.com","Рекрутинг","0000","0000"
"Айман","Насирова","aiman.n@evrika.com","Отдел управления сайтом","0000","0000"
"Айжан","Джанбырбаева","aizhan.d@evrika.com","Юридический отдел","0000","0000"
"Акбар","Кочкарбеков","Akbar.K@evrika.com","Отдел обучения","0000","0000"
"Акбота","Камзагалиева","akbota.k@evrika.com","Жамбылская область","0000","0000"
"Ахан","Аблай","akhan.a@evrika.com","Call-центр","0000","0000"
"Альбина","Бадритденова","albina.b@evrika.com","Отдел маркетинга и коммуникаций","0000","0000"
"Александр","Бояркин","alexandr.b@evrika.com","Отдел монобрендовых продаж","0000","0000"
"Александр","Иванов","alexandr.i@evrika.com","","0000","0000"
"Александр","Хван","alexandr.kh@evrika.com","Коммерческий отдел","0000","0000"
"Александр","Самсонов","alexandr.s@evrika.com","Отдел обучения","0000","0000"
"Александра","Колесниченко","alexandra.k@evrika.com","Кадровое делопроизводство","0000","0000"
"Александра","Литвинова","alexandra.l@evrika.com","Отдел логистики","0000","0000"
"Алихан","Кукенов","alikhan.k@evrika.com","Алматинская область","0000","0000"
"Алина","Ахмет","alina.a@evrika.com","Отдел управления сайтом","0000","0000"
"Алипаша","Хинизов","alipasha.kh@evrika.com","Туркестанская область","0000","0000"
"Алишер","Байдыбеков","alisher.b@evrika.com","1С администрирование","0000","0000"
"Алия","Жайшибекова","aliya.zh@evrika.com","Call-центр","0000","0000"
"Алмаз","Елеусизов","almaz.y@evrika.com","Служба контроля","0000","0000"
"Алуа","Имашева","alua.i@evrika.com","Отдел управления персоналом","0000","0000"
"Алёна","Морозова","alyona.m@evrika.com","Отдел маркетинга и коммуникаций","0000","0000"
"Амангельды","Орынбасаров","amangeldy.o@evrika.com","Туркестанская область","0000","0000"
"Амина","Менжию","amina.m@evrika.com","Отдел монобрендовых продаж","0000","0000"
"Анастасия","Гладких","anastasiya.g@evrika.com","Туркестанская область","0000","0000"
"Андрей","Борщ","andrey.bo@evrika.com","Туркестанская область","0000","0000"
"Андрей","Федоров","andrey.f@evrika.com","ВСЦ","0000","0000"
"Андрей","Мун","andrey.m@evrika.com","Жамбылская область","0000","0000"
"Андрей","Новосёлов","andrey.n@evrika.com","Категория TC/IT","0000","0000"
"Антон","Суспицин","Anton.S@evrika.com","Системное администрирование","0000","0000"
"Ардак","Хайроллаева","ardak.kh@evrika.com","Внутренний аудит","0000","0000"
"Арман","Юнусов","arman.yu@evrika.com","Отдел управления сайтом","0000","0000"
"Артём","Капкаев","artem.k@evrika.com","Системное администрирование","0000","0000"
"Артем","Полтавцев","artem.p@evrika.com","Отдел монобрендовых продаж","0000","0000"
"Артём","Загоруйков","artyom.z@evrika.com","Шымкент","0000","0000"
"Асан","Асанали","asan.a@evrika.com","Call-центр","0000","0000"
"Асем","Мамырова","asem.m@evrika.com","Кадровое делопроизводство","0000","0000"
"Асем","Райымбек","asem.r@evrika.com","Бухгалтерия","0000","0000"
"Асем","Шегирбаева","asem.sh@evrika.com","Юридический отдел","0000","0000"
"Аслан","Юсупов","aslan.y@evrika.com","Туркестанская область","0000","0000"
"Асель","Муратова","assel.m@evrika.com","Отдел доставки","0000","0000"
"Асыл","Алтынсака","assyl.a@evrika.com","Отдел логистики","0000","0000"
"Аянхан","Турсынбай","ayankhan.t@evrika.com","Коммерческий отдел","0000","0000"
"Аяжан","Исмаил","ayazhan.i@evrika.com","Call-центр","0000","0000"
"Азамат","Мамбеткулов","azamat.m@evrika.com","Технический отдел","0000","0000"
"Азиз","Теймуров","aziz.t@evrika.com","Финансовый отдел","0000","0000"
"Азиза","Набижанова","aziza.n@evrika.com","Call-центр","0000","0000"
"Азизбек","Нарметов","azizbek.n@evrika.com","Call-центр","0000","0000"
"Баглан","Сариев","baglan.s@evrika.com","Отдел управления сайтом","0000","0000"
"Бакдаулет","Омірзақов","bakdaulet.o@evrika.com","Внутренний аудит","0000","0000"
"Бахтияр","Аблизов","bakhtiyar.a@evrika.com","Отдел логистики","0000","0000"
"Бахтияр","Юсупов","bakhtiyar.y@evrika.com","Туркестанская область","0000","0000"
"Бахтиёр","Юлдашев","bakhtiyor.y@evrika.com","Call-центр","0000","0000"
"Бакытбек","Кенжалин","bakytbek.k@evrika.com","Call-центр","0000","0000"
"Бауыржан","Тастанбеков","baurjan.t@evrika.com","","0000","0000"
"Байрам","Мусаев","bayram.m@evrika.com","Внутренний аудит","0000","0000"
"Бекболат","Ергешев","bekbolat.y@evrika.com","Технический отдел","0000","0000"
"Бекзада","Жайлыбаева","bekzada.zh@evrika.com","Юридический отдел","0000","0000"
"Бибарс","Басбай","bibars.b@evrika.com","Отдел управления сайтом","0000","0000"
"Чингиз","Сулиев","chingiz.s@evrika.com","Алматинская область","0000","0000"
"Данияр","Султанов","daniyar.s@evrika.com","Категория МБТ","0000","0000"
"Данияр","Сасыков","daniyar.ss@evrika.com","Коммерческий отдел","0000","0000"
"Дарья","Кожамкулова","darya.k@evrika.com","Отдел управления сайтом","0000","0000"
"Даулет","Жанибеков","daulet.j@evrika.com","1С администрирование","0000","0000"
"Даурен","Амиралиев","dauren.amiraliev@evrika.com","Внутренний аудит","0000","0000"
"Денис","Югай","denis.yu@evrika.com","Отдел монобрендовых продаж","0000","0000"
"Диана","Сапашова","diana.s@evrika.com","Коммерческий отдел","0000","0000"
"Динара","Халык","dinara.kh@evrika.com","Call-центр","0000","0000"
"Динара","Малькова","dinara.m@evrika.com","Call-центр","0000","0000"
"Динара","Туребекова","dinara.t@evrika.com","Бухгалтерия","0000","0000"
"Диназ","Ерназар","dinaz.e@evrika.com","Отдел доставки","0000","0000"
"Джамиля","Ильясова","djamilya.i@evrika.com","Финансовый отдел","0000","0000"
"Дмитрий","Слепцов","dmitriy.s@evrika.com","Шымкент","0000","0000"
"Дулат","Меирбаев","dulat.m@evrika.com","Операционный отдел","0000","0000"
"Эдуард","Гаврилин","eduard.g@evrika.com","Технический отдел","0000","0000"
"Елена","Митюрина","elena.m@evrika.com","Бухгалтерия","0000","0000"
"Эльвира","Абдурахман","elvira.ab@evrika.com","Отдел маркетинга и коммуникаций","0000","0000"
"Евгений","Попов","evgeniy.p@evrika.com","Отдел монобрендовых продаж","0000","0000"
"Фарида","Асилова","farida.a@evrika.com","Отдел логистики","0000","0000"
"Фарит","Ярмухамедов","farit.f@evrika.com","Внутренний аудит","0000","0000"
"Фазилат","Туракулова","fazilat.t@evrika.com","Отдел обучения","0000","0000"
"Фируза","Алтаева","firuza.a@evrika.com","Бухгалтерия","0000","0000"
"Геннадий","Гуденко","gennadiy.g@evrika.com","Отдел развития розницы","0000","0000"
"Герман","Хан","german.kh@evrika.com","Жамбылская область","0000","0000"
"Гульмира","Джусупова","gulmira.d@evrika.com","Отдел логистики","0000","0000"
"Гульнар","Игембердиева","gulnar.i@evrika.com","Отдел маркетинга и коммуникаций","0000","0000"
"Гульнара","Ибрагимова","gulnara.i@evrika.com","Категория TV","0000","0000"
"Гульшара","Ибраева","gulshara.i@evrika.com","Рекрутинг","0000","0000"
"Гузалия","Талипова","guzaliya.t@evrika.com","Бухгалтерия","0000","0000"
"Хамид","Эйбов","hamid.e@evrika.com","Категория КБТ","0000","0000"
"Игорь","Синицын","igor.s@evrika.com","Север и Кызылорда","0000","0000"
"Ильфат","Зиятдин","ilfat.z@evrika.com","Корпоративный отдел","0000","0000"
"Ильяс","Бахытулы","iliyas.b@evrika.com","Системное администрирование","0000","0000"
"Инна","Гресле","inna.g@evrika.com","Отдел управления персоналом","0000","0000"
"Ирада","Нурметова","irada.n@evrika.com","Call-центр","0000","0000"
"Ирина","Музыкина","irina.m@evrika.com","Технический отдел","0000","0000"
"Иса","Юсупов","isa.y@evrika.com","Технический отдел","0000","0000"
"Исмаил","Гасанов","ismail.g@evrika.com","Шымкент","0000","0000"
"Джанибек","Мурзин","janibek.m@evrika.com","Категория TC/IT","0000","0000"
"Камила","Хаталиева","kamilla.h@evrika.com","Финансовый отдел","0000","0000"
"Камран","Мусаев","kamran.m@evrika.com","Корпоративный отдел","0000","0000"
"Канат","Ногманов","kanat.n@evrika.com","Технический отдел","0000","0000"
"Қарлығаш","Сағат","karlygash.s@evrika.com","Отдел управления сайтом","0000","0000"
"Казыбек","Садуов","kazybek.s@evrika.com","Отдел доставки","0000","0000"
"Константин","Чепурной","konstantin.ch@evrika.com","Отдел развития розницы","0000","0000"
"Костас","Стояннидис","kostas.s@evrika.com","Отдел монобрендовых продаж","0000","0000"
"Куаныш","Джанибеков","kuanish.d@evrika.com","Call-центр","0000","0000"
"Лаура","Жолтаева","laura.z@evrika.com","Call-центр","0000","0000"
"Лена","Миськив","lena.m@evrika.com","Отдел управления персоналом","0000","0000"
"Любовь","Шабунина","lubov.sh@evrika.com","Отдел маркетинга и коммуникаций","0000","0000"
"Мадина","Шолпанкулова","madina.s@evrika.com","Отдел монобрендовых продаж","0000","0000"
"Магжан","Бисенгалиев","magzhan.b@evrika.com","Call-центр","0000","0000"
"Магжан","Елеуп","Magzhan.Y@evrika.com","Отдел монобрендовых продаж","0000","0000"
"Махбуба","Умарова","makhbuba.u@evrika.com","Call-центр","0000","0000"
"Мақсат","Кәрім","maksat.k@evrika.com","1С администрирование","0000","0000"
"Марианна","Абдулкасимова","marianna.a@evrika.com","Отдел маркетинга и коммуникаций","0000","0000"
"Марина","Муругова","marina.m@evrika.com","Кадровое делопроизводство","0000","0000"
"Маржан","Кузембаева","marzhan.k@evrika.com","Отдел доставки","0000","0000"
"Медербек","Бузурманкулов","mederbek.b@evrika.com","Отдел монобрендовых продаж","0000","0000"
"Мейрман","Бадыров","meirman.b@evrika.com","1С администрирование","0000","0000"
"Мержан","Кобыланды","merzhan.k@evrika.com","Внутренний аудит","0000","0000"
"Михаил","Ежков","mikhail.e@evrika.com","1С администрирование","0000","0000"
"Миржан","Ибрагимов","mirzhan.i@evrika.com","Отдел управления сайтом","0000","0000"
"Мухтар","Алибжанов","muhtar.a@evrika.com","Внутренний аудит","0000","0000"
"Мұхаметәлі","Оразбек","mukhametali.o@evrika.com","1С администрирование","0000","0000"
"Мухаммаджон","Абдурашитов","mukhammadzhon.a@evrika.com","Шымкент","0000","0000"
"Муратжан","Абдухакимов","murat.a@evrika.com","1С администрирование","0000","0000"
"Музаффар","Халыкназаров","muzaffar.k@evrika.com","Отдел информационных технологий","0000","0000"
"Нафисахан","Набижанова","nafisakhan.n@evrika.com","Отдел доставки","0000","0000"
"Наталья","Дробышева","nataliya.d@evrika.com","Корпоративный отдел","0000","0000"
"Наталья","Кирнасова","nataliya.k@evrika.com","Отдел управления персоналом","0000","0000"
"Наталья","Ломакина","nataliya.l@evrika.com","Отдел управления персоналом","0000","0000"
"Наталья","Кудрявцева","natalya.k@evrika.com","Отдел маркетинга и коммуникаций","0000","0000"
"Наталья","Мартыненко","natalya.m@evrika.com","Бухгалтерия","0000","0000"
"Назим","Таиров","nazim.t@evrika.com","Отдел маркетинга и коммуникаций","0000","0000"
"Назиршех","Шарипов","nazirshekh.sh@evrika.com","Внутренний аудит","0000","0000"
"Никита","Алексеев","nikita.a@evrika.com","1С администрирование","0000","0000"
"Нурбек","Кулыбеков","nurbek.k@evrika.com","Системное администрирование","0000","0000"
"Нургали","Илесов","nurgali.i@evrika.com","Служба контроля","0000","0000"
"Нуркен","Есиркепов","nurken.y@evrika.com","Call-центр","0000","0000"
"Нурлан","Курманбеков","nurlan.k@evrika.com","Категория КБТ","0000","0000"
"Нурлыбек","Бекитаев","nurlybek.b@evrika.com","Отдел монобрендовых продаж","0000","0000"
"Нуршат","Сланов","nurshat.s@evrika.com","Отдел логистики","0000","0000"
"Нурсултан","Алпысбаев","nursultan.a@evrika.com","Север и Кызылорда","0000","0000"
"Нурсултан","Болат","nursultan.b@evrika.com","Отдел управления сайтом","0000","0000"
"Нуртас","Кадырбаев","nurtas.k@evrika.com","Отдел маркетинга и коммуникаций","0000","0000"
"Нуртаза","Сапаров","nurtaza.s@evrika.com","Алматинская область","0000","0000"
"Нуржан","Дайрбеков","nurzhan.d@evrika.com","Юридический отдел","0000","0000"
"Нуржан","Кульбаев","nurzhan.k@evrika.com","Служба контроля","0000","0000"
"Ольга","Герасименко","olga.g@evrika.com","Бухгалтерия","0000","0000"
"Ольга","Ким","olga.k@evrika.com","Бухгалтерия","0000","0000"
"Олжас","Мустафин","olzhas.m@evrika.com","Отдел обучения","0000","0000"
"Османали","Закирьянов","osmanali.a@evrika.com","Категория МБТ","0000","0000"
"Рамиз","Муззаффаров","ramiz.m@evrika.com","Служба контроля","0000","0000"
"Рану","Оразбаева","ranu.o@evrika.com","Отдел монобрендовых продаж","0000","0000"
"Рашид","Айнеков","rashid.a@evrika.com","Шымкент","0000","0000"
"Расим","Димухамедов","rasim.d@evrika.com","Системное администрирование","0000","0000"
"Расим","Махмудов","rasim.m@evrika.com","Категория TC/IT","0000","0000"
"Румия","Гильманшина","rumiya.g@evrika.com","Кадровое делопроизводство","0000","0000"
"Руслан","Алиев","ruslan.a@evrika.com","Север и Кызылорда","0000","0000"
"Руслан","Курбанкулов","ruslan.k@evrika.com","Категория МБТ","0000","0000"
"Руслан","Юсупов","ruslan.u@evrika.com","Туркестанская область","0000","0000"
"Рустам","Дурсунов","rustam.du@evrika.com","Алматинская область","0000","0000"
"Рустам","Мусаев","rustam.m@evrika.com","","0000","0000"
"Рүстем","Жәлімбет","rustem.zh@evrika.com","Отдел маркетинга и коммуникаций","0000","0000"
"Сабина","Мамедова","sabina.m@evrika.com","Отдел логистики","0000","0000"
"Сакен","Сарсенбаев","saken.s@evrika.com","Технический отдел","0000","0000"
"Санат","Кантарбаев","sanat.k@evrika.com","Внутренний аудит","0000","0000"
"Сергей","Корнеев","sergey.k@evrika.com","Системное администрирование","0000","0000"
"Серик","Досбаев","serik.d@evrika.com","1С администрирование","0000","0000"
"Севиль","Байрамова","sevil.b@evrika.com","Бухгалтерия","0000","0000"
"Шахноза","Рахымбердина","shahnoza.r@evrika.com","Категория КБТ","0000","0000"
"Шеринбанум","Ниязова","sherin.n@evrika.com","Категория TC/IT","0000","0000"
"Ситорабону","Кадирова","sitorabonu.k@evrika.com","Call-центр","0000","0000"
"Станислав","Фадеев","stanislav.f@evrika.com","Категория МБТ","0000","0000"
"Станислав","Иванов","stanislav.i@evrika.com","Жамбылская область","0000","0000"
"Сулейман","Зейналов","suleiman.z@evrika.com","Внутренний аудит","0000","0000"
"Султан","Дауренбек","sultan.d@evrika.com","1С администрирование","0000","0000"
"Таиыр","Темирбеков","tair.t@evrika.com","Отдел маркетинга и коммуникаций","0000","0000"
"Тахмина","Миноварова","takhmina.m@evrika.com","Бухгалтерия","0000","0000"
"Талгат","Салманов","talgat.s@evrika.com","Туркестанская область","0000","0000"
"Татьяна","Шевченко","tatyana.sh@evrika.com","Бухгалтерия","0000","0000"
"Татьяна","Веретельникова","tatyana.v@evrika.com","Бухгалтерия","0000","0000"
"Таукехан","Арипхан","taukekhan.a@evrika.com","Категория TV","0000","0000"
"Темирлан","Калижакпаров","temirlan.k@evrika.com","Корпоративный отдел","0000","0000"
"Тимур","Капкаев","timur.k@evrika.com","Системное администрирование","0000","0000"
"Тимур","Султанов","timur.s@evrika.com","Отдел маркетинга и коммуникаций","0000","0000"
"Торемурат","Баймурзин","toremurat.b@evrika.com","Отдел монобрендовых продаж","0000","0000"
"Улжалгас","Ахмедова","ulzhalgas.a@evrika.com","Категория TV","0000","0000"
"Валентина","Чердакова","valentina.ch@evrika.com","Коммерческий отдел","0000","0000"
"Венера","Ахметова","venera.a@evrika.com","Коммерческий отдел","0000","0000"
"Виктория","Абдрахманова","viktoriya.a@evrika.com","Категория МБТ","0000","0000"
"Виталий","Сальников","vitaliy.s@evrika.com","Технический отдел","0000","0000"
"Виталий","Скабёлкин","vitaliy.sk@evrika.com","Отдел обучения","0000","0000"
"Виталий","Уляшев","vitaliy.u@evrika.com","Туркестанская область","0000","0000"
"Владимир","Татаринов","vladimir.t@evrika.com","Отдел логистики","0000","0000"
"Владимир","Желтаков","vladimir.zh@evrika.com","Отдел развития розницы","0000","0000"
"Владислав","Колокольцев","vladislav.kl@evrika.com","Север и Кызылорда","0000","0000"
"Владислав","Таратун","vladislav.t@evrika.com","Шымкент","0000","0000"
"Вячеслав","Коваленко","vyacheslav.k@evrika.com","Отдел обучения","0000","0000"
"Ялкунжан","Турсунов","yalkunzhan.t@evrika.com","Отдел доставки","0000","0000"
"Ярослав","Болбот","yaroslav.b@evrika.com","Жамбылская область","0000","0000"
"Екатерина","Зинец","yekaterina.z@evrika.com","Бухгалтерия","0000","0000"
"Ербол","Инкаров","yerbol.i@evrika.com","Внутренний аудит","0000","0000"
"Ердар","Умутбай","yerdar.u@evrika.com","Отдел маркетинга и коммуникаций","0000","0000"
"Ерлан","Есенкулов","yerlan.e@evrika.com","Шымкент","0000","0000"
"Ерлан","Мухтар","Yerlan.M@evrika.com","Технический отдел","0000","0000"
"Ермек","Космаилов","yermek.k@evrika.com","Категория КБТ","0000","0000"
"Ернар","Турсынбаев","yernar.t@evrika.com","Категория TC/IT","0000","0000"
"Ержан","Абдухаимов","yerzhan.a@evrika.com","Системное администрирование","0000","0000"
"Ержас","Мухаметкали","yerzhas.m@evrika.com","Внутренний аудит","0000","0000"
"Евгения","Хиотиди","yevgeniya.h@evrika.com","Корпоративный отдел","0000","0000"
"Евгения","Кубрак","yevgeniya.k@evrika.com","Бухгалтерия","0000","0000"
"Евгения","Ким","yevgeniya.ki@evrika.com","Бухгалтерия","0000","0000"
"Евгения","Компанеец","yevgeniya.ko@evrika.com","Категория КБТ","0000","0000"
"Евгения","Лисинская","yevgeniya.l@evrika.com","","0000","0000"
"Юлия","Шарова","yuliya.sh@evrika.com","Рекрутинг","0000","0000"
"Юрий","Емельяненко","yuriy.e@evrika.com","Отдел обучения","0000","0000"
"Юрий","Мирошкин","yuriy.m@evrika.com","Системное администрирование","0000","0000"
"Юсуп","Акилов","yusup.a@evrika.com","Алматинская область","0000","0000"
"Закир","Валиев","zakir.v@evrika.com","Жамбылская область","0000","0000"
"Жанар","Усманова","zhanar.u@evrika.com","Отдел развития розницы","0000","0000"
"Жанара","Тастанбекова","zhanara.t@evrika.com","Отдел информационных технологий","0000","0000"
